NULL,"SY","Omar","5 Place de l'Etoile PARIS","01 05 06 00 11"
NULL,"JOLIE","Angela","151 rue d'Enfert Rochereau PARIS","02 02 02 01 03"
NULL,"ELMALEH","Gad","26 rue d'Alger PARIS","01 01 01 01 02"
NULL,"CRUZ","Pénelope","8 Boulevard des Anges MADRIS",03 00 00 00 10"